{
    "name": "loot-drop",
    "title": "Loot Drop",
    "description": "A module to drop npc inventories on death in SWADE",
    "author": "KhakiMonk",
    "version": "1.0.0",
    "minimumCoreVersion": "0.8.7",
    "systems": ["swade"],
    "url": "https://gitlab.com/khakimonk/loot-drop/-/tree/master",
    "manifest": "https://gitlab.com/khakimonk/loot-drop/-/raw/master/module.json",
    "download": "https://gitlab.com/khakimonk/loot-drop/-/archive/master/loot-drop-master.zip",
    "readme": "https://gitlab.com/khakimonk/loot-drop/-/blob/master/README.md",
    "bugs": "https://gitlab.com/khakimonk/loot-drop/-/issues",
    "changelog": "",
    "esmodules": ["scripts/main.js"]
  }